2
2
2
2
2
2
2
2
2
2
2
2
2
2
2
2
2
2
2
2
2
2
2
2
2
2
2
2
2
2
2
3
f
f
f
f
f
f
f
f
f
f
f
f
f
f
f
f
f
f
f
f
f
f
f
f
f
f
f
f
f
f
f
f
f
f
f
f
f
f
f
f
f
f
f
f
f
f
f
f
f
f
f
f
f
f
f
f
f
f
f
f
f
f
f
f
2
2
2
2
2
2
2
2
2
2
2
2
2
2
2
2
2
2
2
2
2
2
2
2
2
2
2
2
2
2
2
3
2
3
3
3
3
3
3
3
3
3
3
3
3
3
3
3
3
3
3
3
3
3
3
3
3
3
3
3
3
3
3
3
f
f
f
f
f
f
c
c
c
c
c
c
c
c
c
c
c
c
c
c
c
f
f
f
f
f
f
f
f
f
f
f
f
f
f
f
f
f
f
f
f
f
f
f
f
f
f
f
f
f
f
f
f
f
f
f
f
f
f
f
f
f
f
f
2
3
3
3
3
3
3
3
3
3
3
3
3
3
3
3
3
3
3
3
3
3
3
3
3
3
3
3
3
3
3
3
2
3
3
3
3
3
3
3
3
3
3
3
3
3
3
3
3
3
3
3
3
3
3
3
3
3
3
3
3
4
3
3
f
f
f
f
f
c
c
c
c
c
c
c
c
c
c
c
c
c
c
c
c
f
f
f
f
f
f
f
f
f
f
f
f
f
f
f
f
f
f
f
f
f
f
f
f
f
f
f
f
f
f
f
f
f
f
f
f
f
f
f
f
f
f
f
2
3
3
3
3
3
3
3
3
3
3
3
3
3
3
3
3
3
3
3
3
3
3
3
3
3
3
3
3
4
3
3
2
3
3
4
4
4
4
4
4
4
4
4
4
4
4
4
4
4
4
4
4
4
4
4
4
4
4
4
5
4
3
3
f
f
f
f
f
c
c
c
c
f
f
f
f
c
f
c
c
f
c
c
c
f
f
f
f
2
f
f
f
2
f
f
2
2
2
f
f
f
2
2
2
2
f
f
f
f
f
f
f
f
f
f
f
f
f
f
f
f
f
f
f
f
f
f
2
3
3
4
4
4
4
4
4
4
4
4
4
4
4
4
4
4
4
4
4
4
4
4
4
4
4
4
5
4
3
3
2
3
3
4
5
5
5
5
5
5
5
5
5
5
4
5
5
5
5
5
5
5
5
5
5
5
5
5
5
4
3
3
f
f
f
f
c
c
c
c
c
f
c
c
c
c
f
c
c
f
c
c
c
f
f
f
f
2
f
f
f
2
f
2
f
f
f
2
f
2
f
f
f
f
f
f
f
f
f
f
f
f
f
f
f
f
f
f
f
f
f
f
f
f
f
f
2
3
3
4
5
5
5
5
5
5
5
5
5
5
4
5
5
5
5
5
5
5
5
5
5
5
5
5
5
4
3
3
2
3
3
4
5
5
5
5
5
5
5
5
5
5
5
5
5
5
5
5
5
5
5
5
5
5
6
5
5
4
3
3
f
f
f
f
c
c
c
c
c
f
f
f
c
c
f
f
f
f
c
c
c
f
f
f
f
2
f
f
f
2
f
2
2
2
2
2
f
f
2
2
2
f
f
f
f
f
f
f
f
f
f
f
f
f
f
f
f
f
f
f
f
f
f
f
2
3
3
4
5
5
5
5
5
5
5
5
5
5
5
5
5
5
5
5
5
5
5
5
5
5
6
5
5
4
3
3
2
3
3
4
5
5
6
6
6
6
6
6
6
6
6
6
6
6
6
6
6
6
6
6
6
6
6
5
5
4
3
3
f
f
f
f
c
c
c
c
c
f
c
c
c
c
f
c
c
f
c
c
c
f
f
f
f
2
f
f
f
2
f
2
f
f
f
2
f
f
f
f
f
2
f
f
f
f
f
f
f
f
f
f
f
f
f
f
f
f
f
f
f
f
f
f
2
3
3
4
5
5
6
6
6
6
6
6
6
6
6
6
6
6
6
6
6
6
6
6
6
6
6
5
5
4
3
3
2
3
3
4
5
5
6
7
6
7
6
7
7
7
6
6
7
6
7
7
6
6
6
6
7
6
6
5
4
4
3
3
f
f
f
f
c
c
c
c
c
f
c
c
c
c
f
c
c
f
c
c
c
f
f
f
f
2
f
f
f
2
f
2
f
f
f
2
f
f
f
f
f
2
f
f
f
f
f
f
f
f
f
f
f
f
f
f
f
f
f
f
f
f
f
f
2
3
3
4
5
5
6
7
6
7
6
7
7
7
6
6
7
6
7
7
6
6
6
6
7
6
6
5
4
4
3
3
2
3
3
4
5
5
6
7
7
7
7
7
7
7
7
7
7
7
7
7
7
7
7
8
7
6
6
5
5
4
3
3
f
f
f
f
c
c
c
c
c
f
c
c
c
c
f
c
c
f
c
c
c
f
f
f
f
f
2
2
2
f
f
2
f
f
f
2
f
2
2
2
2
f
f
f
f
f
f
f
f
f
f
f
f
f
f
f
f
f
f
f
f
f
f
f
2
3
3
4
5
5
6
7
7
7
7
7
7
7
7
7
7
7
7
7
7
7
7
8
7
6
6
5
5
4
3
3
2
3
3
4
5
5
6
6
7
8
8
8
8
8
8
8
8
8
8
8
8
8
8
8
7
6
6
5
5
4
3
3
f
f
f
f
c
c
c
c
c
c
c
c
c
c
c
c
c
c
c
c
c
f
f
f
f
f
f
f
f
f
f
f
f
f
f
f
f
f
f
f
f
f
f
f
f
f
f
f
f
f
f
f
f
f
f
f
f
f
f
f
f
f
f
f
2
3
3
4
5
5
6
6
7
8
8
8
8
8
8
8
8
8
8
8
8
8
8
8
7
6
6
5
5
4
3
3
2
3
3
4
5
5
6
6
7
8
8
8
8
8
8
8
8
8
8
8
8
9
8
8
7
7
6
5
5
4
3
3
f
f
f
f
f
f
f
f
f
f
f
f
f
f
f
f
f
f
f
f
f
f
f
f
f
f
f
f
f
f
f
f
f
f
f
f
f
f
f
f
f
f
f
f
f
f
f
f
f
f
f
f
f
f
f
f
f
f
f
f
f
f
f
f
2
3
3
4
5
5
6
6
7
8
8
8
8
8
8
8
8
8
8
8
8
9
8
8
7
7
6
5
5
4
3
3
2
3
3
4
5
5
6
7
7
8
8
9
9
9
9
9
9
9
9
9
a
9
8
8
7
6
6
5
5
4
3
3
f
f
f
f
2
2
2
2
2
2
2
2
2
2
2
2
2
2
2
2
2
2
2
2
2
2
2
2
2
2
2
2
2
2
2
2
2
2
2
2
2
2
2
2
2
2
2
2
2
2
2
2
2
2
2
2
2
2
2
f
f
f
f
f
2
3
3
4
5
5
6
7
7
8
8
9
9
9
9
9
9
9
9
9
a
9
8
8
7
6
6
5
5
4
3
3
2
3
3
4
5
5
6
7
7
8
8
9
a
a
a
a
a
a
a
a
a
9
8
8
7
6
6
5
4
4
3
3
f
f
f
f
2
2
2
2
2
2
2
2
2
2
2
2
2
2
2
2
2
2
2
2
2
2
2
2
2
2
2
2
2
2
2
2
2
2
2
2
2
2
2
2
2
2
2
2
2
2
2
2
2
2
2
2
2
2
2
f
f
f
f
f
2
3
3
4
5
5
6
7
7
8
8
9
a
a
a
a
a
a
a
a
a
9
8
8
7
6
6
5
4
4
3
3
2
3
3
4
5
5
6
6
7
8
8
9
a
a
a
a
a
a
b
a
a
9
8
8
7
6
6
5
5
4
3
3
f
f
f
f
f
2
2
2
2
f
f
f
f
f
2
f
f
f
2
2
f
f
f
2
f
2
2
f
2
2
f
2
2
2
f
2
2
f
2
f
2
2
f
2
f
2
2
2
f
2
f
2
2
2
f
2
2
2
2
f
f
f
f
f
2
3
3
4
5
5
6
6
7
8
8
9
a
a
a
a
a
a
b
a
a
9
8
8
7
6
6
5
5
4
3
3
2
3
3
4
5
5
6
6
7
8
8
9
a
a
b
b
b
c
b
a
a
9
8
8
7
6
6
5
5
4
3
3
f
f
f
f
f
2
2
2
2
2
2
f
2
2
2
f
2
2
2
f
2
2
2
2
f
2
2
f
2
2
f
f
2
2
f
2
2
f
2
f
2
f
2
2
f
2
2
2
f
2
f
f
2
f
f
2
2
2
2
f
f
f
f
f
2
3
3
4
5
5
6
6
7
8
8
9
a
a
b
b
b
c
b
a
a
9
8
8
7
6
6
5
5
4
3
3
2
3
3
4
5
5
6
6
7
8
8
9
a
a
b
c
c
b
b
a
a
9
8
8
7
6
6
5
5
4
3
3
f
f
f
f
f
2
2
2
2
2
2
f
2
2
2
f
f
f
2
f
2
2
2
2
f
f
f
f
2
2
f
2
f
2
f
2
2
f
2
f
f
2
2
2
f
2
2
2
f
2
f
2
f
2
f
2
2
2
2
f
f
f
f
f
2
3
3
4
5
5
6
6
7
8
8
9
a
a
b
c
c
b
b
a
a
9
8
8
7
6
6
5
5
4
3
3
2
3
3
4
5
5
6
6
7
8
8
9
a
a
b
c
c
c
b
a
a
9
8
8
7
7
6
5
5
4
3
3
f
f
f
f
f
f
2
2
2
2
2
f
2
2
2
f
2
2
2
f
2
2
2
2
f
2
2
f
2
2
f
2
2
f
f
2
2
f
2
f
2
f
2
2
f
2
2
2
f
2
f
2
2
2
f
2
2
2
2
f
f
f
f
f
2
3
3
4
5
5
6
6
7
8
8
9
a
a
b
c
c
c
b
a
a
9
8
8
7
7
6
5
5
4
3
3
2
3
3
4
5
5
6
6
7
8
8
9
a
a
c
c
c
c
b
a
a
9
8
8
7
7
6
5
5
4
3
3
f
f
f
f
f
f
2
2
2
2
2
f
2
2
2
f
f
f
2
2
f
f
f
2
f
2
2
f
2
2
f
2
2
2
f
2
2
f
2
f
2
2
f
2
2
f
f
f
2
2
f
2
2
2
f
2
2
2
2
f
f
f
f
f
2
3
3
4
5
5
6
6
7
8
8
9
a
a
c
c
c
c
b
a
a
9
8
8
7
7
6
5
5
4
3
3
2
3
3
4
5
5
6
7
7
8
8
9
a
b
b
b
b
b
b
a
a
9
8
8
7
6
6
5
5
4
3
3
f
f
f
f
f
f
f
2
2
2
2
2
2
2
2
2
2
2
2
2
2
2
2
2
2
2
2
2
2
2
2
2
2
2
2
2
2
2
2
2
2
2
2
2
2
2
2
2
2
2
2
2
2
2
2
2
2
2
2
f
f
f
f
f
2
3
3
4
5
5
6
7
7
8
8
9
a
b
b
b
b
b
b
a
a
9
8
8
7
6
6
5
5
4
3
3
2
3
3
4
5
5
6
6
7
8
8
9
a
a
a
a
a
a
a
a
a
9
8
8
7
7
6
5
5
4
3
3
f
f
f
f
f
f
f
2
2
2
2
2
2
2
2
2
2
2
2
2
2
2
2
2
2
2
2
2
2
2
2
2
2
2
2
2
2
2
2
2
2
2
2
2
2
2
2
2
2
2
2
2
2
2
2
2
2
2
2
f
f
f
f
f
2
3
3
4
5
5
6
6
7
8
8
9
a
a
a
a
a
a
a
a
a
9
8
8
7
7
6
5
5
4
3
3
2
3
3
4
5
5
6
6
7
8
8
a
a
a
a
a
a
a
a
a
a
9
8
8
7
6
6
5
5
4
3
3
f
f
f
f
f
f
f
f
f
f
f
f
f
f
f
f
f
f
f
f
f
f
f
f
f
f
f
f
f
f
f
f
f
f
f
f
f
f
f
f
f
f
f
f
f
f
f
f
f
f
f
f
f
f
f
f
f
f
f
f
f
f
f
f
2
3
3
4
5
5
6
6
7
8
8
a
a
a
a
a
a
a
a
a
a
9
8
8
7
6
6
5
5
4
3
3
2
3
3
4
4
5
6
7
7
8
9
9
9
9
9
9
9
9
9
9
9
9
8
8
7
6
6
5
4
4
3
3
f
f
f
f
f
f
f
1
1
1
1
1
1
1
1
1
1
1
1
1
1
1
1
1
1
1
1
1
1
1
1
1
1
f
f
f
f
f
f
f
f
f
f
f
f
f
f
f
f
f
f
f
f
f
f
f
f
f
f
f
f
f
f
f
2
3
3
4
4
5
6
7
7
8
9
9
9
9
9
9
9
9
9
9
9
9
8
8
7
6
6
5
4
4
3
3
2
3
3
4
4
5
6
6
7
8
8
8
8
8
8
8
8
8
8
8
8
8
8
8
7
7
6
5
5
4
3
3
f
f
f
f
f
f
f
f
1
1
1
f
1
f
1
f
1
f
1
f
f
f
1
f
1
1
1
f
1
1
1
1
1
f
f
f
f
f
f
f
f
f
f
f
f
f
f
f
f
f
f
f
f
f
f
f
f
f
f
f
f
f
f
f
2
3
3
4
4
5
6
6
7
8
8
8
8
8
8
8
8
8
8
8
8
8
8
8
7
7
6
5
5
4
3
3
2
3
3
4
5
5
6
7
8
8
8
8
8
8
8
8
8
8
8
8
8
8
8
8
7
7
6
5
5
4
3
3
f
f
f
f
f
f
f
f
1
1
1
f
1
f
1
f
1
f
1
f
1
1
1
f
f
1
1
f
1
1
1
1
1
f
f
f
f
f
f
f
f
f
f
f
f
f
f
f
f
f
f
f
f
f
f
f
f
f
f
f
f
f
f
f
2
3
3
4
5
5
6
7
8
8
8
8
8
8
8
8
8
8
8
8
8
8
8
8
7
7
6
5
5
4
3
3
2
3
3
4
5
5
6
7
7
7
7
7
7
7
7
7
7
7
7
7
7
7
7
7
7
6
6
5
4
4
3
3
f
f
f
f
f
f
f
f
1
1
1
f
1
f
1
f
1
f
1
f
f
f
1
f
f
f
1
f
1
1
1
1
1
f
f
f
f
f
f
f
f
f
f
f
f
f
f
f
f
f
f
f
f
f
f
f
f
f
f
f
f
f
f
f
2
3
3
4
5
5
6
7
7
7
7
7
7
7
7
7
7
7
7
7
7
7
7
7
7
6
6
5
4
4
3
3
2
3
3
4
5
5
6
6
6
7
7
7
7
7
6
7
7
6
7
6
6
7
7
6
7
6
6
5
5
4
3
3
f
f
f
f
f
f
f
1
1
1
1
f
1
f
1
f
1
f
1
f
1
1
1
f
1
f
f
f
1
1
1
1
1
f
f
f
f
f
f
f
f
f
f
f
f
f
f
f
f
f
f
f
f
f
f
f
f
f
f
f
f
f
f
f
2
3
3
4
5
5
6
6
6
7
7
7
7
7
6
7
7
6
7
6
6
7
7
6
7
6
6
5
5
4
3
3
2
3
3
4
5
6
6
6
6
6
6
6
6
6
6
6
6
6
6
6
6
6
6
6
6
6
6
5
5
4
3
3
f
f
f
f
f
f
f
1
1
1
1
f
f
f
f
f
1
f
1
f
1
1
1
f
1
1
f
f
1
1
1
1
1
f
f
f
f
f
f
f
f
f
f
f
f
f
f
f
f
f
f
f
f
f
f
f
f
f
f
f
f
f
f
f
2
3
3
4
5
6
6
6
6
6
6
6
6
6
6
6
6
6
6
6
6
6
6
6
6
6
6
5
5
4
3
3
2
3
3
4
5
5
5
5
5
5
5
5
5
5
5
5
5
5
5
5
5
5
5
5
5
5
5
5
4
4
3
3
f
f
f
f
f
f
f
1
1
1
1
1
f
1
f
1
1
f
1
f
f
f
1
f
1
1
1
f
1
1
1
1
1
f
f
f
f
f
f
f
f
f
f
f
f
f
f
f
f
f
f
f
f
f
f
f
f
f
f
f
f
f
f
f
2
3
3
4
5
5
5
5
5
5
5
5
5
5
5
5
5
5
5
5
5
5
5
5
5
5
5
5
4
4
3
3
2
3
3
5
5
5
5
5
5
4
5
5
5
5
5
5
5
5
5
5
4
5
5
5
5
4
5
5
5
4
3
3
f
f
f
f
f
f
f
1
1
1
1
1
1
1
1
1
1
1
1
1
1
1
1
1
1
1
1
1
1
1
1
1
1
f
f
f
f
f
f
f
f
f
f
f
f
f
f
f
f
f
f
f
f
f
f
f
f
f
f
f
f
f
f
f
2
3
3
5
5
5
5
5
5
4
5
5
5
5
5
5
5
5
5
5
4
5
5
5
5
4
5
5
5
4
3
3
2
3
4
4
4
4
4
4
4
4
4
4
4
4
4
4
4
4
4
4
4
4
4
4
4
4
4
4
4
4
3
3
f
f
f
f
f
f
1
1
1
1
1
1
1
1
1
1
1
1
1
1
1
1
1
1
1
1
1
1
1
1
1
1
1
f
f
f
f
f
f
f
f
f
f
f
f
f
f
f
f
f
f
f
f
f
f
f
f
f
f
f
f
f
f
f
2
3
4
4
4
4
4
4
4
4
4
4
4
4
4
4
4
4
4
4
4
4
4
4
4
4
4
4
4
4
3
3
2
3
3
3
3
3
3
3
3
3
3
3
3
3
3
3
3
3
3
3
3
3
3
3
3
3
3
3
3
3
3
3
f
f
f
f
f
f
f
f
f
f
f
f
f
f
f
f
f
f
f
f
f
f
f
f
f
f
f
f
f
f
f
f
f
f
f
f
f
f
f
f
f
f
f
f
f
f
f
f
f
f
f
f
f
f
f
f
f
f
f
f
f
f
f
f
2
3
3
3
3
3
3
3
3
3
3
3
3
3
3
3
3
3
3
3
3
3
3
3
3
3
3
3
3
3
3
3
3
3
3
3
3
3
3
3
3
3
3
3
3
3
3
3
3
3
3
3
3
3
3
3
3
3
3
3
3
3
3
3
f
f
f
f
f
f
f
f
f
f
f
f
f
f
f
f
f
f
f
f
f
f
f
f
f
f
f
f
f
f
f
f
f
f
f
f
f
f
f
f
f
f
f
f
f
f
f
f
f
f
f
f
f
f
f
f
f
f
f
f
f
f
f
f
3
3
3
3
3
3
3
3
3
3
3
3
3
3
3
3
3
3
3
3
3
3
3
3
3
3
3
3
3
3
3
3
